{
  "defaultSeverity": "warning",
  "extends": [
    "tslint:recommended"
  ],
  "linterOptions": {
    "exclude": [
      "node_modules/**"
    ]
  },
  "rules": {
    "arrow-parens": false,
    "member-access": [true, "no-public"],
    "quotemark": [true, "single"],
    "indent": [true, "spaces", 2],
    "semicolon": false,
    "trailing-comma": false,
    "interface-name": false,
    "ordered-imports": false,
    "object-literal-sort-keys": false,
    "no-consecutive-blank-lines": true,
    "max-line-length": false
  }
}
